…
spread_squares <- function(df, padding = 0.0) {
  df %>%
    mutate(x = x + column * (1 + padding),
           y = y + row * (1 + padding))
}

make_grid(10, 20) %>%
  spread_squares() %>%
  print() %>%
  ggplot(aes(x, y, group = square)) +
    geom_polygon(fill = NA, color = 'black') +
    coord_equal()

## # A tibble: 800 x 5
##    square     x     y column   row
##     <dbl> <dbl> <dbl>  <dbl> <dbl>
##  1      0   0.5   0.5      0     0
##  2      0  -0.5   0.5      0     0
##  3      0  -0.5  -0.5      0     0
##  4      0   0.5  -0.5      0     0
##  5      1   1.5   0.5      1     0
##  6      1   0.5   0.5      1     0
##  7      1   0.5  -0.5      1     0
##  8      1   1.5  -0.5      1     0
##  9      2   2.5   0.5      2     0
## 10      2   1.5   0.5      2     0
## # … with 790 more rows
…
